Digraph {
 rankdir="LR"
 compound=true;

 
subgraph attack_trace {
	cluster = true
	step1 []
	step2 []
	step3 []
	step4 []
	step1 -> step2
	step2 -> step3
	step3 -> step4
	step4 -> step5;
}
step1 -> entrypoint1_disconnect_exploit_VALUE;
step2 -> control2_route_exploit_VALUE;
step3 -> control6_route_exploit_VALUE;
step4 -> control3_rpc_exploit_VALUE;
 
subgraph computation0 {
 cluster = true 
 label=computation0
computation0_schedule [shape=box, label="schedule"]
computation0_async [shape=box, label="async"]
computation0_await [shape=box, label="await"]
computation0_schedule_exploit [shape=note, label="schedule.exploit"]
computation0_schedule_exploit_VALUE [ label=cwe364]
computation0_schedule_exploit -> computation0_schedule_exploit_VALUE
computation0_async_exploit [shape=note, label="async.exploit"]
computation0_async_exploit_VALUE [ label=cwe386]
computation0_async_exploit -> computation0_async_exploit_VALUE
computation0_await_exploit [shape=note, label="await.exploit"]
computation0_await_exploit_VALUE [ label=cwe386]
computation0_await_exploit -> computation0_await_exploit_VALUE
}
subgraph entrypoint1 {
 cluster = true 
 label=entrypoint1
entrypoint1_disconnect [shape=box, label="disconnect"]
entrypoint1_disconnect_exploit [shape=note, label="disconnect.exploit"]
entrypoint1_disconnect_exploit_VALUE [ label=cwe288]
entrypoint1_disconnect_exploit -> entrypoint1_disconnect_exploit_VALUE
}
subgraph control2 {
 cluster = true 
 label=control2
control2_route [shape=box, label="route"]
control2_dispatch [shape=box, label="dispatch"]
control2_route_exploit [shape=note, label="route.exploit"]
control2_route_exploit_VALUE [ label=cwe420]
control2_route_exploit -> control2_route_exploit_VALUE
control2_dispatch_exploit [shape=note, label="dispatch.exploit"]
control2_dispatch_exploit_VALUE [ label=cwe914]
control2_dispatch_exploit -> control2_dispatch_exploit_VALUE
}
subgraph control3 {
 cluster = true 
 label=control3
control3_route [shape=box, label="route"]
control3_dispatch [shape=box, label="dispatch"]
control3_rpc [shape=box, label="rpc"]
control3_route_exploit [shape=note, label="route.exploit"]
control3_route_exploit_VALUE [ label=cwe420]
control3_route_exploit -> control3_route_exploit_VALUE
control3_dispatch_exploit [shape=note, label="dispatch.exploit"]
control3_dispatch_exploit_VALUE [ label=cwe914]
control3_dispatch_exploit -> control3_dispatch_exploit_VALUE
control3_rpc_exploit [shape=note, label="rpc.exploit"]
control3_rpc_exploit_VALUE [ label=cwe470]
control3_rpc_exploit -> control3_rpc_exploit_VALUE
}
subgraph control4 {
 cluster = true 
 label=control4
control4_dispatch [shape=box, label="dispatch"]
control4_dispatch_exploit [shape=note, label="dispatch.exploit"]
control4_dispatch_exploit_VALUE [ label=cwe914]
control4_dispatch_exploit -> control4_dispatch_exploit_VALUE
}
subgraph control5 {
 cluster = true 
 label=control5
control5_route [shape=box, label="route"]
control5_route_exploit [shape=note, label="route.exploit"]
control5_route_exploit_VALUE [ label=cwe420]
control5_route_exploit -> control5_route_exploit_VALUE
}
subgraph control6 {
 cluster = true 
 label=control6
control6_route [shape=box, label="route"]
control6_route_exploit [shape=note, label="route.exploit"]
control6_route_exploit_VALUE [ label=cwe420]
control6_route_exploit -> control6_route_exploit_VALUE
}
subgraph control7 {
 cluster = true 
 label=control7
control7_route [shape=box, label="route"]
control7_rpc [shape=box, label="rpc"]
control7_route_exploit [shape=note, label="route.exploit"]
control7_route_exploit_VALUE [ label=cwe420]
control7_route_exploit -> control7_route_exploit_VALUE
control7_rpc_exploit [shape=note, label="rpc.exploit"]
control7_rpc_exploit_VALUE [ label=cwe470]
control7_rpc_exploit -> control7_rpc_exploit_VALUE
}
subgraph control8 {
 cluster = true 
 label=control8
control8_dispatch [shape=box, label="dispatch"]
control8_rpc [shape=box, label="rpc"]
control8_dispatch_exploit [shape=note, label="dispatch.exploit"]
control8_dispatch_exploit_VALUE [ label=cwe914]
control8_dispatch_exploit -> control8_dispatch_exploit_VALUE
control8_rpc_exploit [shape=note, label="rpc.exploit"]
control8_rpc_exploit_VALUE [ label=cwe470]
control8_rpc_exploit -> control8_rpc_exploit_VALUE
}
subgraph entrypoint9 {
 cluster = true 
 label=entrypoint9
}




computation0_schedule -> control4_dispatch [ltail=computation0]
entrypoint1_disconnect -> control2_route [ltail=entrypoint1]
entrypoint1_disconnect -> control3_route [ltail=entrypoint1]
entrypoint1_disconnect -> control3_dispatch [ltail=entrypoint1]
entrypoint1_disconnect -> control3_rpc [ltail=entrypoint1]
entrypoint1_disconnect -> control6_route [ltail=entrypoint1]
entrypoint1_disconnect -> control7_route [ltail=entrypoint1]
entrypoint1_disconnect -> control7_rpc [ltail=entrypoint1]
entrypoint1_disconnect -> control8_dispatch [ltail=entrypoint1]
control2_route -> control6_route [ltail=control2]
control2_route -> control7_route [ltail=control2]
control2_route -> control7_rpc [ltail=control2]
control3_route -> control4_dispatch [ltail=control3]
control3_route -> control7_route [ltail=control3]
control3_route -> control8_dispatch [ltail=control3]
control3_route -> control8_rpc [ltail=control3]
control4_dispatch -> entrypoint1_disconnect [ltail=control4]
control4_dispatch -> control5_route [ltail=control4]
control4_dispatch -> control7_route [ltail=control4]
control4_dispatch -> control7_rpc [ltail=control4]
control5_route -> computation0_async [ltail=control5]
control5_route -> computation0_await [ltail=control5]
control6_route -> control2_dispatch [ltail=control6]
control6_route -> control3_route [ltail=control6]
control6_route -> control3_dispatch [ltail=control6]
control6_route -> control3_rpc [ltail=control6]
control6_route -> control4_dispatch [ltail=control6]
control6_route -> control7_rpc [ltail=control6]
control7_route -> control2_route [ltail=control7]
control7_route -> control3_route [ltail=control7]
control7_route -> control3_dispatch [ltail=control7]
control7_route -> control3_rpc [ltail=control7]
control7_route -> control8_dispatch [ltail=control7]
control7_route -> control8_rpc [ltail=control7]
control8_dispatch -> computation0_schedule [ltail=control8]
control8_dispatch -> computation0_async [ltail=control8]
control8_dispatch -> entrypoint1_disconnect [ltail=control8]
control8_dispatch -> control6_route [ltail=control8]
}
