Digraph {
rankdir="LR"
compound=true;

Subgraph Frontend {
cluster = true
label = "Frontend"
connect [shape=box]
}

Subgraph cluster_2 {
label = "Backend"
login [shape=box]
login_USERNAME [label="login.username", shape=note]
login_EXPLOIT [label="login.exploit", shape=note]
getdocument [shape=box]
NCONNECTED [ shape=note]
}

Subgraph cluster_3 {
label = "Accountmanager"
fetchuser [shape=box]
fetchuser_EXPLOIT [label="fetchuser.exploit", shape=note]
}

Subgraph cluster_4 {
label = "DocumentManager"
fetchdocument [shape=box]
fetchdocument_EXPLOIT [label="fetchdocument.exploit", shape=note]
}

Subgraph cluster_5 {
label = "Database"
execquery [shape=box]
execqure_EXPLOIT [label="execquery.exploit", shape=note]
}

connect -> login [ltail=Frontend]
login -> fetchuser
getdocument -> fetchdocument
fetchuser -> execquery
fetchdocument -> execquery

}