Digraph {
 rankdir="LR"
 compound=true;
subgraph frontend {
 cluster = true 
 label=frontend
connect [shape=box]
connect_IP [shape=note, label="connect.IP"]
}
subgraph backend {
 cluster = true 
 label=backend
login [shape=box]
getdocument [shape=box]
backend_NCONNECTED [shape=note, label="NCONNECTED"]
backend_USERNAME [shape=note, label="USERNAME"]
login_exploit [shape=note, label="login.exploit"]
getdocument_exploit [shape=note, label="getdocument.exploit"]
}
subgraph accountmanager {
 cluster = true 
 label=accountmanager
fetchuser [shape=box]
fetchuser_exploit [shape=note, label="fetchuser.exploit"]
}
subgraph documentmanager {
 cluster = true 
 label=documentmanager
fetchdocument [shape=box]
fetchdocument_exploit [shape=note, label="fetchdocument.exploit"]
}
subgraph database {
 cluster = true 
 label=database
execquery [shape=box]
execquery_exploit [shape=note, label="execquery.exploit"]
}
connect -> login [ltail=frontend]
login -> fetchuser [ltail=backend]
login -> fetchdocument [ltail=backend]
fetchdocument -> execquery [ltail=documentmanager]
fetchuser -> execquery [ltail=accountmanager]
}